<?xml version="1.0" encoding="UTF-8"?>
<svg width="10px" height="6px" viewBox="0 0 10 6" version="1.1" xmlns="http://www.w3.org/2000/svg" xmlns:xlink="http://www.w3.org/1999/xlink">
    <!-- Generator: Sketch 61.2 (89653) - https://sketch.com -->
    <title>dropdown-down</title>
    <desc>Created with Sketch.</desc>
    <defs>
        <path d="M1.41421356,0 L8.58578644,0 C9.13807119,0 9.58578644,0.44771525 9.58578644,1 C9.58578644,1.26521649 9.4804296,1.5195704 9.29289322,1.70710678 L5.70710678,5.29289322 C5.31658249,5.68341751 4.68341751,5.68341751 4.29289322,5.29289322 L0.707106781,1.70710678 C0.316582489,1.31658249 0.316582489,0.683417511 0.707106781,0.292893219 C0.89464316,0.10535684 1.14899707,0 1.41421356,0 L1.41421356,0 Z" id="path-1"></path>
    </defs>
    <g id="Main" stroke="none" stroke-width="1" fill="none" fill-rule="evenodd">
        <g id="Instructions-For-Use-v2-mob-1" transform="translate(-229.000000, -27.000000)">
            <g id="dropdown-down" transform="translate(229.000000, 27.000000)">
                <mask id="mask-2" fill="white">
                    <use xlink:href="#path-1"></use>
                </mask>
                <use id="Rectangle" fill="#FFFFFF" xlink:href="#path-1"></use>
            </g>
        </g>
    </g>
</svg>