<?xml version="1.0" encoding="UTF-8"?>
<svg width="20px" height="20px" viewBox="0 0 20 20" version="1.1" xmlns="http://www.w3.org/2000/svg" xmlns:xlink="http://www.w3.org/1999/xlink">
    <!-- Generator: Sketch 59.1 (86144) - https://sketch.com -->
    <title>print</title>
    <desc>Created with Sketch.</desc>
    <g id="Main" stroke="none" stroke-width="1" fill="none" fill-rule="evenodd">
        <g id="btns_group" transform="translate(-40.000000, -68.000000)" fill="#f9bb53" fill-rule="nonzero">
            <g id="btns" transform="translate(8.000000, 0.000000)">
                <g id="btn_outline" transform="translate(-8.000000, 56.000000)">
                    <g id="Group-8">
                        <g id="Group-18" transform="translate(40.000000, 8.695652)">
                            <g id="print" transform="translate(0.000000, 3.304348)">
                                <path d="M16.0766046,4.0952381 L15.563147,4.0952381 L15.563147,2.95238095 C15.563147,1.32505176 14.2380952,0 12.610766,0 L6.41200828,0 C4.78467909,0 3.45962733,1.32505176 3.45962733,2.95238095 L3.45962733,4.0952381 L2.99171843,4.0952381 C1.36438923,4.0952381 0.0393374741,5.42028986 0.0393374741,7.04761905 L0.0393374741,11.8095238 C0.0393374741,13.436853 1.36438923,14.7619048 2.99171843,14.7619048 L3.45548654,14.7619048 L3.45548654,18.505176 C3.45548654,19.3167702 4.11801242,19.9792961 4.92960663,19.9792961 L14.0848861,19.9792961 C14.8964803,19.9792961 15.5590062,19.3167702 15.5590062,18.505176 L15.5590062,14.7619048 L16.0766046,14.7619048 C17.7039337,14.7619048 19.0289855,13.436853 19.0289855,11.8095238 L19.0289855,7.04761905 C19.0289855,5.42028986 17.7039337,4.0952381 16.0766046,4.0952381 Z M4.57349896,2.95238095 C4.57349896,1.94202899 5.39751553,1.11801242 6.40786749,1.11801242 L12.6024845,1.11801242 C13.6128364,1.11801242 14.436853,1.94202899 14.436853,2.95238095 L14.436853,4.0952381 L4.57349896,4.0952381 L4.57349896,2.95238095 Z M14.4409938,18.5134576 C14.4409938,18.7080745 14.2795031,18.8695652 14.0848861,18.8695652 L4.92960663,18.8695652 C4.73498965,18.8695652 4.57349896,18.7080745 4.57349896,18.5134576 L4.57349896,12.3395445 L14.4409938,12.3395445 L14.4409938,18.5134576 Z M17.9109731,11.8136646 C17.9109731,12.8240166 17.0869565,13.6480331 16.0766046,13.6480331 L15.563147,13.6480331 L15.563147,12.3395445 L16.300207,12.3395445 C16.610766,12.3395445 16.8592133,12.0910973 16.8592133,11.7805383 C16.8592133,11.4699793 16.610766,11.2215321 16.300207,11.2215321 L2.63561077,11.2215321 C2.32505176,11.2215321 2.07660455,11.4699793 2.07660455,11.7805383 C2.07660455,12.0910973 2.32505176,12.3395445 2.63561077,12.3395445 L3.45962733,12.3395445 L3.45962733,13.6480331 L2.99171843,13.6480331 C1.98136646,13.6480331 1.1573499,12.8240166 1.1573499,11.8136646 L1.1573499,7.05175983 C1.1573499,6.04140787 1.98136646,5.2173913 2.99171843,5.2173913 L16.0766046,5.2173913 C17.0869565,5.2173913 17.9109731,6.04140787 17.9109731,7.05175983 L17.9109731,11.8136646 Z" id="Shape"></path>
                                <path d="M5.92753623,15.0890269 L13.0455487,15.0890269 C13.3561077,15.0890269 13.6045549,14.8405797 13.6045549,14.5300207 C13.6045549,14.2194617 13.3561077,13.9710145 13.0455487,13.9710145 L5.92753623,13.9710145 C5.61697723,13.9710145 5.36853002,14.2194617 5.36853002,14.5300207 C5.36853002,14.8405797 5.62111801,15.0890269 5.92753623,15.0890269 Z" id="Path"></path>
                                <path d="M13.0910973,16.2567288 L5.9689441,16.2567288 C5.65838509,16.2567288 5.40993789,16.505176 5.40993789,16.815735 C5.40993789,17.126294 5.65838509,17.3747412 5.9689441,17.3747412 L13.0869565,17.3747412 C13.3975155,17.3747412 13.6459627,17.126294 13.6459627,16.815735 C13.6459627,16.505176 13.3975155,16.2567288 13.0910973,16.2567288 Z" id="Path"></path>
                                <path d="M16.0641822,6.28985507 L14.9296066,6.28985507 C14.6190476,6.28985507 14.3706004,6.53830228 14.3706004,6.84886128 C14.3706004,7.15942029 14.6190476,7.40786749 14.9296066,7.40786749 L16.0641822,7.40786749 C16.3747412,7.40786749 16.6231884,7.15942029 16.6231884,6.84886128 C16.6231884,6.53830228 16.3747412,6.28985507 16.0641822,6.28985507 Z" id="Path"></path>
                            </g>
                        </g>
                    </g>
                </g>
            </g>
        </g>
    </g>
</svg>
