<?xml version="1.0" encoding="UTF-8"?>
<svg width="32px" height="32px" viewBox="0 0 32 32" version="1.1" xmlns="http://www.w3.org/2000/svg" xmlns:xlink="http://www.w3.org/1999/xlink">
    <!-- Generator: Sketch 59.1 (86144) - https://sketch.com -->
    <title>dropdown</title>
    <desc>Created with Sketch.</desc>
    <g id="Main" stroke="none" stroke-width="1" fill="none" fill-rule="evenodd">
        <g id="Artboard" transform="translate(-93.000000, -84.000000)" fill-rule="nonzero">
            <g id="dropdown" transform="translate(93.000000, 84.000000)">
                <path d="M0.571428571,0.571428571 L0.571428571,31.4285714 L31.4285714,31.4285714 L31.4285714,0.571428571 L0.571428571,0.571428571 Z" id="Rectangle-7" stroke="#E57200" stroke-width="1.14285714" fill="#E57200"></path>
                <path d="M19.8515625,14.1484375 C19.9505213,14.2473963 20,14.3645827 20,14.5 C20,14.6354173 19.9505213,14.7526037 19.8515625,14.8515625 L16.3515625,18.3515625 C16.2526037,18.4505213 16.1354173,18.5 16,18.5 C15.8645827,18.5 15.7473963,18.4505213 15.6484375,18.3515625 L12.1484375,14.8515625 C12.0494787,14.7526037 12,14.6354173 12,14.5 C12,14.3645827 12.0494787,14.2473963 12.1484375,14.1484375 C12.2473963,14.0494787 12.3645827,14 12.5,14 L19.5,14 C19.6354173,14 19.7526037,14.0494787 19.8515625,14.1484375 Z" id="dropd" fill="#FFFFFF"></path>
            </g>
        </g>
    </g>
</svg>